%YAML 1.1
%TAG !u! tag:unity3d.com,2011:
--- !u!114 &11400000
MonoBehaviour:
  m_ObjectHideFlags: 0
  m_CorrespondingSourceObject: {fileID: 0}
  m_PrefabInstance: {fileID: 0}
  m_PrefabAsset: {fileID: 0}
  m_GameObject: {fileID: 0}
  m_Enabled: 1
  m_EditorHideFlags: 0
  m_Script: {fileID: 11500000, guid: c98264244f4b81841b42930b7d6ae965, type: 3}
  m_Name: Boots2
  m_EditorClassIdentifier: 
  uiDisplay: {fileID: -6099050445329199328, guid: dced4635083fe3844836e87cdf767fc4, type: 3}
  stackable: 0
  type: 4
  rarityType: 2
  description: 
  data:
    Name: 
    Id: 5
    buffs: []
