%YAML 1.1
%TAG !u! tag:unity3d.com,2011:
--- !u!114 &11400000
MonoBehaviour:
  m_ObjectHideFlags: 0
  m_CorrespondingSourceObject: {fileID: 0}
  m_PrefabInstance: {fileID: 0}
  m_PrefabAsset: {fileID: 0}
  m_GameObject: {fileID: 0}
  m_Enabled: 1
  m_EditorHideFlags: 0
  m_Script: {fileID: 11500000, guid: d7fd9488000d3734a9e00ee676215985, type: 3}
  m_Name: Global Volume Profile
  m_EditorClassIdentifier: 
  components:
  - {fileID: 5245068674902927295}
--- !u!114 &2662312467381039729
MonoBehaviour:
  m_ObjectHideFlags: 3
  m_CorrespondingSourceObject: {fileID: 0}
  m_PrefabInstance: {fileID: 0}
  m_PrefabAsset: {fileID: 0}
  m_GameObject: {fileID: 0}
  m_Enabled: 1
  m_EditorHideFlags: 0
  m_Script: {fileID: 11500000, guid: c01700fd266d6914ababb731e09af2eb, type: 3}
  m_Name: DepthOfField
  m_EditorClassIdentifier: 
  active: 1
  m_AdvancedMode: 0
  mode:
    m_OverrideState: 0
    m_Value: 0
  gaussianStart:
    m_OverrideState: 0
    m_Value: 10
    min: 0
  gaussianEnd:
    m_OverrideState: 0
    m_Value: 30
    min: 0
  gaussianMaxRadius:
    m_OverrideState: 0
    m_Value: 1
    min: 0.5
    max: 1.5
  highQualitySampling:
    m_OverrideState: 0
    m_Value: 0
  focusDistance:
    m_OverrideState: 0
    m_Value: 10
    min: 0.1
  aperture:
    m_OverrideState: 0
    m_Value: 5.6
    min: 1
    max: 32
  focalLength:
    m_OverrideState: 0
    m_Value: 50
    min: 1
    max: 300
  bladeCount:
    m_OverrideState: 0
    m_Value: 5
    min: 3
    max: 9
  bladeCurvature:
    m_OverrideState: 0
    m_Value: 1
    min: 0
    max: 1
  bladeRotation:
    m_OverrideState: 0
    m_Value: 0
    min: -180
    max: 180
--- !u!114 &5245068674902927295
MonoBehaviour:
  m_ObjectHideFlags: 3
  m_CorrespondingSourceObject: {fileID: 0}
  m_PrefabInstance: {fileID: 0}
  m_PrefabAsset: {fileID: 0}
  m_GameObject: {fileID: 0}
  m_Enabled: 1
  m_EditorHideFlags: 0
  m_Script: {fileID: 11500000, guid: 66f335fb1ffd8684294ad653bf1c7564, type: 3}
  m_Name: ColorAdjustments
  m_EditorClassIdentifier: 
  active: 1
  m_AdvancedMode: 0
  postExposure:
    m_OverrideState: 1
    m_Value: -7
  contrast:
    m_OverrideState: 1
    m_Value: 0
    min: -100
    max: 100
  colorFilter:
    m_OverrideState: 1
    m_Value: {r: 1, g: 1, b: 1, a: 1}
    hdr: 1
    showAlpha: 0
    showEyeDropper: 1
  hueShift:
    m_OverrideState: 1
    m_Value: 0
    min: -180
    max: 180
  saturation:
    m_OverrideState: 1
    m_Value: 0
    min: -100
    max: 100
--- !u!114 &7449289874244690897
MonoBehaviour:
  m_ObjectHideFlags: 3
  m_CorrespondingSourceObject: {fileID: 0}
  m_PrefabInstance: {fileID: 0}
  m_PrefabAsset: {fileID: 0}
  m_GameObject: {fileID: 0}
  m_Enabled: 1
  m_EditorHideFlags: 0
  m_Script: {fileID: 11500000, guid: c01700fd266d6914ababb731e09af2eb, type: 3}
  m_Name: DepthOfField
  m_EditorClassIdentifier: 
  active: 1
  m_AdvancedMode: 0
  mode:
    m_OverrideState: 0
    m_Value: 0
  gaussianStart:
    m_OverrideState: 0
    m_Value: 10
    min: 0
  gaussianEnd:
    m_OverrideState: 0
    m_Value: 30
    min: 0
  gaussianMaxRadius:
    m_OverrideState: 0
    m_Value: 1
    min: 0.5
    max: 1.5
  highQualitySampling:
    m_OverrideState: 0
    m_Value: 0
  focusDistance:
    m_OverrideState: 0
    m_Value: 10
    min: 0.1
  aperture:
    m_OverrideState: 0
    m_Value: 5.6
    min: 1
    max: 32
  focalLength:
    m_OverrideState: 0
    m_Value: 50
    min: 1
    max: 300
  bladeCount:
    m_OverrideState: 0
    m_Value: 5
    min: 3
    max: 9
  bladeCurvature:
    m_OverrideState: 0
    m_Value: 1
    min: 0
    max: 1
  bladeRotation:
    m_OverrideState: 0
    m_Value: 0
    min: -180
    max: 180
